, Divorce, Veuf, Marie, celibataire, 15    et ans 15 Population  plus
Bizerte Nord,2.21,10.74,59.87,27.19
Zarzouna,2.11,10.24,55.56,32.09
Bizerte Sud,1.38,8.23,63.83,26.57
Sedjnene,1.01,9.10,63.24,26.66
Djoumine,--,--,--,--
Mateur,1.83,11.23,56.15,30.80
Ghezella,--,--,--,--
Menzel Bourguiba,2.22,11.48,57.67,28.63
Tinja,1.34,9.65,56.32,32.69
Utique,--,--,--,--
Ghar El Meleh,1.23,12.14,58.94,27.69
Menzel Djmil,1.32,9.79,58.16,30.73
El Alia,0.72,9.07,63.62,26.60
Ras Djbel,1.39,10.84,60.33,27.44
Total,1.74,10.45,59.06,28.75
Total Tunisie,2.21,9.14,56.93,31.72,2868912,  ,,,,,,   15          )%(

