,  chmage de taux,  d'activite taux,  actifs Non, Chomeurs,  Occupes Actifs,  15   ,Population 15 ans et plus
Bizerte Nord,18.74,29.52,23294,1829,7930
Zarzouna,20.06,30.64,6803,603,2403
Bizerte Sud,18.98,31.60,7458,654,2792
Sedjnene,27.77,30.68,1448,178,463
Djoumine,--,--,--,--,--
Mateur,19.15,33.50,8553,825,3483
Ghezella,--,--,--,--,--
Menzel Bourguiba,20.27,31.44,14830,1378,5421
Tinja,22.66,30.39,5952,589,2010
Utique,--,--,--,--,--
Ghar El Meleh,16.98,21.96,3035,145,709
Menzel Djmil,18.27,32.85,10760,962,4303
El Alia,15.33,21.75,5021,214,1182
Ras Djbel,10.47,29.68,12829,567,4847
Total,18.27,30.31,99983,7944,35543
Total Tunisie,21.41,32.46,1937632,199352,731928,2868912,  ,,,,,    15          )%(


