,       ,Gaz bouteille et gaz naturel pour chauffage,%,         et  bouteille   Gaz,gaz naturel pour chauffage d'eau,%,      Gaz   gaz et bouteille pour naturel cuisson,%,      Utilisation source d'autre,pour    eclairage,%,    pour  Electricite eclairage,%,,  Nombre menages,,,
Bizerte Nord,54.28,82.06,99.69,0.01,99.99
Zarzouna,41.38,87.26,99.81,0.00,100.00
Bizerte Sud,34.78,92.42,99.71,0.19,99.81,13766, ,Sejnane,21.52,72.81,98.36,0.04,99.96
Djoumine,25.24,93.22,99.77,0.36,99.64
Mateur,34.61,94.03,99.88,0.23,99.77
Ghezella,10.49,80.97,99.45,0.78,99.22
Menzel Bourguiba,59.85,92.92,99.85,0.02,99.98
Tinja,40.88,82.25,99.74,0.27,99.73
Utique,27.34,78.29,99.67,0.14,99.86
Ghar El Meleh,24.42,82.33,99.68,0.06,99.94
Menzel Djmil,42.09,86.15,99.63,0.04,99.96
El Alia,24.48,74.96,99.76,0.03,99.97
Ras Djbel,39.13,87.67,99.51,0.01,99.99
Total,38.75,85.79,99.61,0.12,99.88
Total Tunisie,31.60,88.85,99.47,0.20,99.80,2712974, ,,,,          )%(,Repartition des menages selon source d'energie et son utilisation au niveau delegation et milieu )%(,Milieu Communal     ,,,,
