,  chmage de taux,  d'activite taux,  actifs Non, Chomeurs,  Occupes Actifs,  15   ,Population 15 ans et plus
Bizerte Nord,13.26,45.41,35538,3919,25644
Zarzouna,15.27,45.58,10445,1336,7414
Bizerte Sud,12.33,50.86,10648,1359,9663
Sedjnene,15.67,48.62,2118,314,1690
Djoumine,--,--,--,--,--
Mateur,16.82,49.33,12724,2083,10304
Ghezella,--,--,--,--,--
Menzel Bourguiba,17.85,45.02,23258,3399,15648
Tinja,19.40,44.08,9422,1441,5985
Utique,--,--,--,--,--
Ghar El Meleh,7.94,46.06,4219,286,3316
Menzel Djmil,13.43,49.54,16008,2111,13606
El Alia,8.41,45.13,7201,498,5426
Ras Djbel,6.05,49.22,18530,1086,16878
Total,13.37,47.05,150111,17832,115574
Total Tunisie,14.39,49.16,2883131,401264,2386425,5670820,  ,,,,,    15          )%(,Repartition de la population 15 ans et plus selon l'activite. milieu et sexe )%(,
