,,Cuisine,,Toilette,   ,Salle de bain ou douche,,Cuisine,,Toilette,   ,Salle de bain ou douche
Bizerte Nord,193,91,1281,99.33,99.68,95.52
Zarzouna,58,28,864,99.26,99.65,89.02
Bizerte Sud,75,85,573,99.13,99.02,93.38,8653, ,Sejnane,19,92,267,98.84,94.24,83.33
Djoumine,--,--,--,--,--,--
Mateur,142,79,1397,98.49,99.15,85.08
Ghezella,--,--,--,--,--,--
Menzel Bourguiba,236,520,2217,98.53,96.76,86.17
Tinja,100,173,824,98.51,97.43,87.75

Ghar El Meleh,42,26,358,98.75,99.23,89.27
Menzel Djmil,177,76,993,98.90,99.53,93.83
El Alia,107,32,1101,98.10,99.43,80.50
Ras Djbel,168,154,1375,99.04,99.12,92.19
Total,1316,1356,11250,98.92,98.88,90.74
Total Tunisie,47864,47213,224125,97.95,97.98,90.42,2339845, ,,,,,            ,Pourcentage des logements equipes de facilites et le nombre des logements sans facilites par delegation et milieu,Milieu non Communal                                                                                                                                                      ,,,    : sans logement Nombre ,    : avec)%( logement Pourcentage,,  Nombre
