, 2   plus de 2 Km, 2  1  entre 1 et 2Km, 1   moins de 1 Km, 2   plus de 2 Km, 2  1  entre 1 et 2Km, 1   moins de 1 Km
Bizerte Nord,26.83,55.31,17.86,11.20,54.85,33.95
Zarzouna,28.84,48.74,22.42,1.89,46.14,51.96
Bizerte Sud,56.63,35.00,8.37,29.23,50.71,20.06,15395, ,Sejnane,76.00,17.67,6.33,55.52,32.26,12.22
Djoumine,82.22,7.17,10.62,68.93,20.93,10.15
Mateur,43.59,35.73,20.68,35.93,45.64,18.43
Ghezella,95.50,1.38,3.12,65.32,10.92,23.76
Menzel Bourguiba,22.46,62.60,14.95,10.18,56.48,33.35
Tinja,61.04,28.22,10.74,10.73,56.98,32.29
Utique,87.87,6.48,5.65,49.78,23.59,26.62
Ghar El Meleh,87.96,5.91,6.13,19.78,42.32,37.90
Menzel Djmil,89.35,5.06,5.59,13.46,37.08,49.46
El Alia,24.50,40.65,34.85,8.87,34.76,56.37
Ras Djbel,50.56,34.39,15.05,9.01,55.42,35.57
Total,52.73,33.57,13.71,22.37,45.24,32.39
Total Tunisie,56.64,31.27,12.09,23.06,42.75,34.19,3289901, ,,,      local l'hopital de  separant Distance ,     du separant Distance  Dispensaire,  Nombre
