,     10,%,Utilisation internet 10 ans et plus,   - 24  Scolarisation  19,au superieur 19 - 24 ans,  6 - 14  scolarisation 6-14,ans,   29-15  Analph.jeunes,15-29,ans,,  10   ,%Analphabete,
Bizerte Nord,25.16,39.16,98.60,4.88
Zarzouna,--,--,--,--
Bizerte Sud,16.70,30.84,95.46,6.00
Sedjnene,9.48,27.15,89.16,20.95
Djoumine,11.95,41.05,95.04,11.17
Mateur,12.01,24.92,95.28,7.70
Ghezella,16.41,31.19,95.07,11.72
Menzel Bourguiba,14.40,35.39,95.01,11.67
Tinja,13.56,33.33,98.19,8.98
Utique,15.29,30.16,94.42,15.63
Ghar El Meleh,18.96,27.73,95.17,1.86
Menzel Djmil,26.14,20.35,95.55,4.59
El Alia,18.54,28.85,97.17,8.82
Ras Djbel,21.55,36.95,95.94,6.33
Total,14.92,31.39,94.27,11.40
Total Tunisie,16.59,31.69,92.41,11.70,41.72,  ,,,,,,,,,,,,,,,,  ,,,,,Caracteristiques    economiques    de    la population,,,,,,,,,,,,,,,,,,,,    15          )%(


