,   a connecte Menage l'internet, Ordinateur,    ,Le menage a au moin 1 Tel portable,  fixe Tel.,,  Nombre menages,
Bizerte Nord,46.04,50.39,98.15,33.23
Zarzouna,31.04,38.17,97.98,22.24
Bizerte Sud,16.92,21.41,97.21,7.19,13766, ,Sejnane,4.71,7.12,95.04,1.66
Djoumine,0.67,2.53,94.42,0.47
Mateur,18.46,22.17,96.37,9.71
Ghezella,3.96,5.58,94.52,0.93
Menzel Bourguiba,26.30,30.17,96.91,19.27
Tinja,32.85,37.53,97.44,24.18
Utique,8.49,13.70,97.42,3.04,4848,
Ghar El Meleh,17.60,22.96,97.13,9.18,4851, 
Menzel Djmil,34.20,39.37,96.63,30.02
El Alia,20.08,25.18,96.13,13.17
Ras Djbel,26.69,31.38,96.81,16.61
Total,24.23,28.45,96.77,16.41
Total Tunisie,28.75,33.08,97.09,20.36,2712974, ,,,,,           (%),Repartition des menages selon Possession des moyens d'information et communcation au niveau de delegation et milieu (%),Milieu Communal     ,
