, Autre,)%(   Achat,  )%(,Auto construction,  mode Autre, Locataire, Proprietaire
Bizerte Nord,1.80,0.59,97.61,3.90,1.80,94.31
Zarzouna,--,--,--,--,--,--
Bizerte Sud,6.07,1.62,92.31,2.88,3.88,93.24,6368, ,Sejnane,2.84,0.35,96.82,3.78,5.58,90.64
Djoumine,6.32,0.49,93.19,4.15,7.48,88.36
Mateur,10.64,1.17,88.19,10.90,7.65,81.45
Ghezella,7.83,7.44,84.73,2.58,3.62,93.80
Menzel Bourguiba,5.54,1.20,93.26,2.05,10.36,87.59
Tinja,1.90,0.00,98.10,17.25,0.75,81.99
Utique,8.90,0.91,90.20,3.44,7.00,89.56
Ghar El Meleh,6.78,0.30,92.92,1.92,8.12,89.96
Menzel Djmil,8.61,0.43,90.96,9.70,9.46,80.84
El Alia,12.21,0.75,87.03,6.95,8.15,84.90
Ras Djbel,6.93,0.44,92.63,3.62,12.52,83.86
Total,6.62,1.74,91.64,4.35,6.40,89.25
Total Tunisie,7.01,1.35,91.64,4.56,3.74,91.70,811611, ,,,,,           )%(,Repartition des menages par Possession des moyens de loisir. au niveau delegation et milieu )%(,

