,     10,%,Utilisation internet 10 ans et plus,   - 24  Scolarisation  19,au superieur 19 - 24 ans,  6 - 14  scolarisation 6-14,ans,   29-15  Analph.jeunes,15-29,ans,,  10   ,%Analphabete,
Bizerte Nord,27.64,33.22,96.99,3.06
Zarzouna,--,--,--,--
Bizerte Sud,17.93,26.63,95.60,4.38
Sedjnene,10.56,22.34,90.91,16.21
Djoumine,11.86,30.89,95.00,10.46
Mateur,12.57,21.04,94.33,6.29
Ghezella,18.05,25.44,94.26,9.72
Menzel Bourguiba,14.54,29.82,94.89,10.12
Tinja,14.15,26.90,97.38,8.22
Utique,16.41,26.77,93.51,15.58
Ghar El Meleh,19.53,21.37,94.31,2.07
Menzel Djmil,29.87,17.67,95.27,4.08
El Alia,19.67,25.95,95.99,8.36
Ras Djbel,22.27,31.17,95.47,6.56
Total,15.95,25.87,94.16,9.75
Total Tunisie,18.82,27.18,92.53,9.64,32.59,  ,,,,,           )%(,Repartition de la population selon les indicateurs educationnel . selon le milieu et le sexe )%(,,Milieu non Communal  Masculin                                                                                                             
