,  ,Cinq pieces et plus, ,Cinq pieces, ,Trois Pieces,,Deux Pieces, ,Une Piece
Bizerte Nord,8.83,22.88,46.96,19.06,2.27
Zarzouna,3.86,14.85,48.60,30.22,2.47
Bizerte Sud,3.90,20.10,52.89,20.88,2.24,15395, ,Sejnane,3.38,14.44,35.65,35.45,11.09
Djoumine,5.25,17.93,34.23,32.36,10.23
Mateur,5.00,17.13,46.68,27.35,3.84
Ghezella,2.30,12.23,33.70,36.22,15.55
Menzel Bourguiba,5.08,20.37,45.71,26.69,2.15
Tinja,8.18,23.63,48.54,17.74,1.91
Utique,6.03,19.32,52.73,19.15,2.77
Ghar El Meleh,4.89,17.30,47.82,26.86,3.13
Menzel Djmil,5.22,22.42,50.11,19.79,2.45
El Alia,2.43,12.15,43.49,37.75,4.17
Ras Djbel,4.78,17.55,43.42,31.42,2.83,21546, 
Total,5.35,18.99,45.71,26.00,3.95,173508,,
Total Tunisie,,8.17,,22.69,,41.51,,23.04,,4.60,,3289901,, ,,,,,,,,         )%( et delegtion niveau au pieces de nombre par logements des Repartition  milieu,,)%(,,,Milieu Communal     ,,,,,      )%( pieces)%( de nombre par logements des Repartition,,  Nombre
