,  Autres, etudes,  Accompagnement de la famille, mariage,    , acquisition logement ou meilleur condition de  vie, emploi,  Solde migratoire,   emigrants
Bizerte Nord,0.00,0.00,0.00,0.00,0.00,100.00,1,1
Zarzouna,--,--,--,--,--,--,--,--
Bizerte Sud,0.00,18.18,0.00,15.15,9.09,57.58,-26,34
Sedjnene,0.00,7.14,0.00,0.00,3.57,89.29,-28,28
Djoumine,0.00,0.00,0.00,0.00,16.67,83.33,-6,6
Mateur,5.88,0.00,0.00,5.88,0.00,88.24,-17,17
Ghezella,0.00,5.88,0.00,5.88,11.76,76.47,-5,17
Menzel Bourguiba,0.00,0.00,0.00,0.00,33.33,66.67,-2,3
Tinja,0.00,0.00,0.00,0.00,0.00,100.00,11,1
Utique,9.09,0.00,0.00,0.00,0.00,90.91,-11,11
Ghar El Meleh,0.00,2.78,0.00,11.11,0.00,86.11,-27,36
Menzel Djmil,4.76,9.52,0.00,4.76,0.00,80.95,-38,42
El Alia,2.50,10.00,0.00,7.50,0.00,80.00,-19,39
Ras Djbel,0.00,6.06,0.00,15.15,6.06,72.73,-19,34
Total,1.87,7.46,0.00,7.84,3.73,79.10,-186,269
Total Tunisie,0.75,3.63,0.34,1.99,0.52,92.78,-14834,17525,2691,  ,,,,,,,,,,,,,,,,,,,,:       2009 - 2014           )%( 2009 entre milieu et sexe . d'emigration de raisons les residence. de delegation la selon emigrants des et immigrants des Repartition  et2014,,)%(,,,Milieu non Communal  Feminin                                                                                                                                     ,,,    d'emigration Raisons,  internationale migration
