,,Autres,etudes,Accompagne,ment de la,mariage,,acquisition logement,emploi,Solde,migratoire,Sortants,Entrants,,Mobilite,,,,,,,,famille,,,ou meilleur condition,,,,,,,,,generale,,,,,,,,,,,,,de vie,,,,,,,,,,
Bizerte Nord,3.32,4.11,20.06,36.65,12.64,23.22,-578,633,55
Zarzouna,--,--,--,--,--,--,--,--,--
Bizerte Sud,1.92,0.77,16.09,55.56,13.79,11.88,317,261,578
Sedjnene,0.38,1.13,29.89,34.49,5.08,29.04,-825,1064,239
Djoumine,1.43,4.03,24.01,34.95,8.96,26.61,-930,1116,186
Mateur,1.84,4.34,21.16,42.18,8.28,22.21,-507,761,254
Ghezella,1.13,2.55,27.48,38.10,14.02,16.71,-267,706,439
Menzel Bourguiba,2.07,1.24,20.66,52.48,13.64,9.92,-205,242,37
Tinja,2.22,0.00,15.56,42.22,31.11,8.89,36,45,81
Utique,1.26,2.01,24.37,52.76,9.05,10.55,23,398,421
Ghar El Meleh,1.15,0.00,13.79,60.92,18.39,5.75,66,87,153
Menzel Djmil,1.89,0.00,16.98,63.21,12.26,5.66,307,106,413
El Alia,0.00,0.00,26.23,54.10,13.11,6.56,182,122,304
Ras Djbel,5.77,0.00,22.12,58.65,7.69,5.77,38,104,142
Total,1.56,2.60,23.90,41.22,10.06,20.66,-2343,5645,3302
Total Tunisie,2.34,5.16,26.56,32.01,8.96,24.97,-4545,96298,91753,276639,  ,,,,,,,,,,,,,,,,,      2014       2009 2014 )%(,Repartition des migrants selon la delegation de residence en 2014 et raisons de sortie. sexe et milieu entre 2009 et 2014)%(,Milieu non Communal  Masculin                                                                                                ,,,   sortie de Raisons,    delegation niveau au migration,,, 
