,,Autres,etudes,Accompagne,ment de la,mariage,,acquisition logement,emploi,Solde,migratoire,Sortants,Entrants,,Mobilite,,,,,,,,famille,,,ou meilleur condition,,,,,,,,,generale,,,,,,,,,,,,,de vie,,,,,,,,,,
Bizerte Nord,3.34,10.79,20.88,19.11,18.20,27.67,-2710,4698,1988
Zarzouna,2.52,4.56,25.00,22.96,37.42,7.55,314,636,950
Bizerte Sud,3.89,9.17,23.89,22.22,28.61,12.22,1189,360,1549
Sedjnene,0.85,2.71,23.39,23.90,13.39,35.76,-471,590,119
Djoumine,--,--,--,--,--,--,--,--,--
Mateur,3.35,6.79,18.37,26.97,14.48,30.05,-803,1105,302
Ghezella,--,--,--,--,--,--,--,--,--
Menzel Bourguiba,2.77,8.05,19.14,25.85,23.97,20.21,-633,1118,485
Tinja,2.15,2.15,21.51,25.81,37.63,10.75,350,93,443
Utique,--,--,--,--,--,--,--,--,--
Ghar El Meleh,5.83,4.17,15.00,31.67,18.33,25.00,12,120,132
Menzel Djmil,1.92,3.21,23.50,27.99,30.34,13.03,914,468,1382
El Alia,1.89,8.18,23.90,27.04,14.47,24.53,50,159,209
Ras Djbel,2.67,15.78,17.72,25.73,16.02,22.09,184,412,596
Total,2.99,8.71,20.90,22.48,20.40,24.51,-1604,9759,8155
Total Tunisie,3.59,6.69,22.29,19.55,25.66,22.21,2838,288081,290919,701563,  ,,,,,,,      2014       2009 2014 )%(,Repartition des migrants selon la delegation de residence en 2014 et raisons de sortie. sexe et milieu entre 2009 et 2014)%(,Milieu Communal  Feminin                                                                                                     ,,,   sortie de Raisons,    delegation niveau au migration,,,,,,,,, ,,    ,, ,,, 
