;     10;%;Utilisation internet 10 ans et plus;   - 24  Scolarisation  19
Bizerte Nord;48.65;63.98;98.85;1.87
Zarzouna;41.72;55.85;98.31;2.61
Bizerte Sud;34.88;41.01;98.00;3.02
Sedjnene;29.65;46.98;98.95;1.94
Djoumine;--;--;--;--
Mateur;26.67;47.74;98.77;3.69
Ghezella;--;--;--;--
Menzel Bourguiba;29.31;51.22;98.54;3.64
Tinja;34.68;58.48;98.81;3.23
Utique;--;--;--;--
Ghar El Meleh;26.34;39.24;97.15;3.39
Menzel Djmil;40.76;49.26;98.53;1.65
El Alia;34.38;40.69;98.20;2.98
Ras Djbel;34.33;44.86;97.37;3.05
Total;37.17;51.51;98.36;2.72

