;  Autres; etudes;  Accompagne ment de la famille; mariage;    ; acquisition logement ou meilleur condition;de vie; emploi;  Solde migratoire
Bizerte Nord;3.64;4.64;16.23;25.83;14.90;34.77;-275;302;27
Zarzouna;--;--;--;--;--;--;--;--;--
Bizerte Sud;0.88;0.00;13.16;45.61;18.42;21.93;119;114;233
Sedjnene;0.65;1.30;24.62;26.35;7.56;39.52;-359;463;104
Djoumine;1.24;5.37;21.90;26.65;12.40;32.44;-396;484;88
Mateur;2.01;3.15;19.77;32.38;10.89;31.81;-252;349;97
Ghezella;1.55;2.80;24.22;28.88;18.01;24.53;-169;322;153
Menzel Bourguiba;0.94;0.94;23.58;40.57;16.04;17.92;-98;106;8
Tinja;6.67;0.00;20.00;6.67;46.67;20.00;6;15;21
Utique;2.13;3.19;25.00;39.89;12.77;17.02;-24;188;164
Ghar El Meleh;0.00;0.00;25.00;34.38;25.00;15.63;26;32;58
Menzel Djmil;2.22;0.00;22.22;51.11;15.56;8.89;147;45;192
El Alia;0.00;0.00;30.43;36.96;21.74;10.87;74;46;120
Ras Djbel;9.76;0.00;24.39;43.90;17.07;4.88;26;41;67
Total;1.76;2.91;21.86;30.91;13.44;29.12;-1175;2507;1332

