; Autre;)%(   Achat;  )%(;Auto construction;  mode Autre; Locataire
Bizerte Nord;24.20;16.36;59.44;4.09;29.23;66.69
Zarzouna;21.96;23.43;54.61;6.46;24.89;68.65
Bizerte Sud;12.19;9.78;78.03;4.62;17.54;77.84
Djoumine;--;--;--;--;--;--
Mateur;30.88;25.36;43.76;5.41;18.47;76.12
Ghezella;--;--;--;--;--;--
Menzel Bourguiba;18.93;7.84;73.23;6.14;18.10;75.75
Tinja;17.34;20.94;61.71;4.67;16.31;79.02
Utique;--;--;--;--;--;--
Ghar El Meleh;19.51;1.36;79.13;3.42;16.56;80.02
Menzel Djmil;16.05;3.48;80.47;3.73;20.62;75.65
El Alia;22.19;1.76;76.04;6.34;17.96;75.70
Ras Djbel;19.63;2.58;77.79;3.71;16.21;80.08
Total;20.63;11.29;68.09;4.76;21.10;74.14

