;;Autres;etudes;Accompagne;ment de la;mariage;;acquisition logement;emploi
Bizerte Nord;2.86;10.78;26.61;26.62;13.71;19.42;-6749;10703;3954
Zarzouna;2.10;3.26;34.55;25.39;28.65;6.06;811;1288;2099
Bizerte Sud;3.79;8.07;25.00;32.59;20.72;9.82;2721;1028;3749
Sedjnene;0.76;2.02;27.43;30.59;8.22;30.97;-1873;2373;500
Djoumine;1.43;4.03;24.01;34.95;8.96;26.61;-930;1116;186
Mateur;2.23;5.24;22.77;37.23;11.38;21.15;-2096;3092;996
Ghezella;1.13;2.55;27.48;38.10;14.02;16.71;-267;706;439
Menzel Bourguiba;2.28;6.83;22.69;34.52;19.58;14.11;-1553;2636;1083
Tinja;3.10;1.94;24.81;35.66;27.91;6.59;786;258;1044
Utique;1.26;2.01;24.37;52.76;9.05;10.55;23;398;421
Ghar El Meleh;3.84;3.56;21.37;43.56;13.42;14.25;117;365;482
Menzel Djmil;2.06;2.06;29.30;34.22;23.40;8.95;2470;1017;3487
El Alia;1.33;3.80;26.94;43.26;12.52;12.14;188;527;715
Ras Djbel;2.64;9.28;23.05;38.77;12.60;13.67;351;1024;1375
Total;2.36;7.14;25.93;31.63;14.70;18.24;-6001;26531;20530

