; ;Logement; ;Appar Ou Studio;   
Bizerte Nord;0.09;15.08;11.80;67.59;5.44
Zarzouna;0.05;0.90;8.06;84.91;6.08
Bizerte Sud;0.12;2.87;13.47;79.14;4.42
Djoumine;--;--;--;--;--
Mateur;0.18;2.05;2.67;85.50;9.60
Ghezella;--;--;--;--;--
Menzel Bourguiba;0.36;4.08;23.43;65.90;6.23
Tinja;0.12;0.33;11.86;82.60;5.08
Utique;--;--;--;--;--
Ghar El Meleh;0.06;1.23;3.81;81.70;13.20
Menzel Djmil;0.06;2.60;11.93;81.82;3.59
El Alia;0.11;0.28;0.51;90.84;8.25
Ras Djbel;0.06;1.29;4.49;85.30;8.86
Total;0.13;5.11;10.78;77.59;6.40

