; 2   plus de 2 Km; 2  1  entre 1 et 2Km; 1   moins de 1 Km; 2   plus de 2 Km; 2  1  entre 1 et 2Km; 1   moins de 1 Km
Bizerte Nord;9.14;55.40;35.46;6.69;57.76;35.55
Zarzouna;10.93;64.17;24.90;3.97;34.00;62.03
Bizerte Sud;25.24;59.08;15.68;10.54;46.12;43.34
Djoumine;--;--;--;--;--;--
Mateur;8.97;61.02;30.01;3.35;52.18;44.48
Ghezella;--;--;--;--;--;--
Menzel Bourguiba;7.70;60.33;31.98;5.03;58.22;36.76
Tinja;24.32;57.98;17.70;3.17;35.09;61.75
Utique;--;--;--;--;--;--
Ghar El Meleh;46.11;12.45;41.44;1.47;40.42;58.11
Menzel Djmil;5.91;63.93;30.16;6.68;41.87;51.45
El Alia;0.49;64.32;35.19;0.34;16.59;83.07
Ras Djbel;44.17;32.66;23.17;3.51;52.11;44.38
Total;16.28;54.40;29.32;5.19;48.17;46.64

