;  Autres; etudes;  Accompagnement de la famille; mariage;    ; acquisition logement ou meilleur condition de  vie; emploi;  Solde migratoire
Bizerte Nord;0.00;34.26;2.79;18.78;1.02;43.15;-97;394
Zarzouna;1.81;10.24;0.60;15.66;0.00;71.69;-95;166
Bizerte Sud;3.48;11.30;0.00;14.78;0.87;69.57;-24;113
Sedjnene;4.76;33.33;0.00;19.05;0.00;42.86;-11;21
Djoumine;--;--;--;--;--;--;--;--
Mateur;1.16;9.30;0.00;9.30;0.00;80.23;-59;86
Ghezella;--;--;--;--;--;--;--;--
Menzel Bourguiba;0.85;12.82;0.00;22.65;2.14;61.54;-142;235
Tinja;1.44;15.83;0.00;20.86;0.72;61.15;-97;138
Utique;--;--;--;--;--;--;--;--
Ghar El Meleh;0.00;3.85;0.00;19.23;0.00;76.92;2;26
Menzel Djmil;0.40;22.38;0.40;38.42;0.59;37.82;-391;503
El Alia;1.21;12.12;0.00;6.67;0.61;79.39;-106;165
Ras Djbel;0.00;17.87;1.45;19.32;2.42;58.94;-96;207
Total;0.83;19.58;0.83;22.40;0.97;55.39;-1116;2054

