; Autre;)%(   Achat;  )%(;Auto construction;  mode Autre; Locataire
Bizerte Nord;23.00;15.52;61.49;4.08;28.17;67.75
Zarzouna;21.96;23.43;54.61;6.46;24.89;68.65
Bizerte Sud;9.08;5.64;85.28;3.82;11.22;84.96
Djoumine;6.32;0.49;93.19;4.15;7.48;88.36
Mateur;24.61;17.86;57.52;7.03;15.27;77.70
Ghezella;7.83;7.44;84.73;2.58;3.62;93.80
Menzel Bourguiba;17.11;6.93;75.96;5.65;17.18;77.17
Tinja;15.84;18.91;65.25;5.86;14.84;79.30
Utique;8.90;0.91;90.20;3.44;7.00;89.56
Ghar El Meleh;13.38;0.85;85.77;2.74;12.74;84.51
Menzel Djmil;15.08;3.08;81.84;4.46;19.24;76.29
El Alia;18.72;1.41;79.87;6.54;14.80;78.67
Ras Djbel;17.47;2.22;80.31;3.69;15.61;80.70
Total;15.34;7.68;76.98;4.62;16.18;79.20

