;  200  2;plus 200 m2;2 199  150 ;Entre 150 et 199 m2;149  100 
Bizerte Nord;5.76;10.76;35.14;42.07;6.27
Zarzouna;3.62;6.10;31.78;53.63;4.88
Bizerte Sud;3.55;10.32;44.56;37.96;3.61
Djoumine;--;--;--;--;--
Mateur;3.33;7.45;36.72;45.98;6.53
Ghezella;--;--;--;--;--
Menzel Bourguiba;3.02;7.91;42.28;42.57;4.21
Tinja;3.40;9.44;48.52;34.24;4.39
Utique;--;--;--;--;--
Ghar El Meleh;4.11;8.13;40.01;40.86;6.88
Menzel Djmil;7.59;15.16;42.53;30.45;4.27
El Alia;4.74;11.76;43.55;36.21;3.74
Ras Djbel;2.22;6.67;36.06;49.99;5.06
Total;4.41;9.68;39.11;41.75;5.06

