; 2   plus de 2 Km; 2  1  entre 1 et 2Km; 1   moins de 1 Km; 2   plus de 2 Km; 2  1  entre 1 et 2Km; 1   moins de 1 Km
Bizerte Nord;20.84;63.84;15.32;45.93;19.32;34.74
Zarzouna;--;--;--;--;--;--
Bizerte Sud;24.54;45.08;30.38;47.45;26.47;26.08
Djoumine;41.91;39.98;18.10;72.01;16.04;11.95
Mateur;39.82;33.06;27.13;89.70;8.95;1.35
Ghezella;38.75;30.08;31.18;66.66;6.90;26.44
Menzel Bourguiba;22.88;47.10;30.03;38.60;35.50;25.90
Tinja;23.12;19.79;57.09;69.46;9.84;20.69
Utique;33.04;35.85;31.11;51.80;19.67;28.53
Ghar El Meleh;11.84;52.84;35.32;55.24;28.15;16.61
Menzel Djmil;20.45;30.46;49.09;42.06;24.41;33.53
El Alia;9.49;69.99;20.52;30.53;51.46;18.01
Ras Djbel;16.41;41.54;42.05;21.56;42.82;35.62
Total;28.97;44.24;26.79;60.41;20.68;18.91

