;  chmage de taux;  d'activite taux;  actifs Non; Chomeurs;  Occupes Actifs
Bizerte Nord;10.53;62.00;12722;2186;18568
Zarzouna;12.76;61.20;3642;733;5011
Bizerte Sud;11.16;69.31;6413;1617;12868
Sedjnene;14.85;63.18;5542;1412;8099
Djoumine;10.18;63.55;4012;712;6284
Mateur;14.49;66.03;6114;1722;10163
Ghezella;14.08;64.18;3897;983;6000
Menzel Bourguiba;15.49;60.28;9342;2197;11984
Tinja;17.45;59.23;3750;951;4499
Utique;5.48;71.42;2191;300;5173
Ghar El Meleh;4.58;72.77;2024;248;5161
Menzel Djmil;11.06;67.84;5775;1348;10837
El Alia;6.06;68.29;3162;413;6400
Ras Djbel;3.99;68.89;6865;606;14595
Total;10.94;65.15;75451;15428;125642

