;  Autres; etudes;  Accompagnement de la famille; mariage;    ; acquisition logement ou meilleur condition de  vie; emploi;  Solde migratoire
Bizerte Nord;0.00;30.24;0.81;11.29;0.81;56.85;-80;249
Zarzouna;0.77;10.77;0.77;5.38;0.00;82.31;-90;130
Bizerte Sud;1.56;13.28;0.00;10.16;3.13;71.88;-72;127
Sedjnene;2.44;14.63;0.00;4.88;2.44;75.61;-36;41
Djoumine;0.00;0.00;0.00;0.00;16.67;83.33;-6;6
Mateur;1.16;8.14;0.00;3.49;0.00;87.21;-70;86
Ghezella;0.00;5.88;0.00;5.88;11.76;76.47;-5;17
Menzel Bourguiba;1.08;11.83;0.00;14.52;2.15;70.43;-127;186
Tinja;0.00;18.10;0.00;12.38;0.95;68.57;-87;105
Utique;9.09;0.00;0.00;0.00;0.00;90.91;1;11
Ghar El Meleh;0.00;3.51;0.00;8.77;0.00;87.72;-32;57
Menzel Djmil;1.01;19.70;0.51;25.25;0.76;52.78;-338;395
El Alia;1.59;11.64;0.00;2.65;0.53;83.60;-134;188
Ras Djbel;0.00;15.87;1.06;7.94;3.17;71.96;-111;190
Total;0.84;16.38;0.39;12.24;1.40;68.75;-1187;1788

