;  chmage de taux;  d'activite taux;  actifs Non; Chomeurs;  Occupes Actifs
Bizerte Nord;10.78;40.97;1592;119;985
Zarzouna;--;--;--;--;--
Bizerte Sud;15.42;44.89;10859;1364;7483
Sedjnene;18.11;36.65;16311;1709;7728
Djoumine;12.84;36.04;14057;1017;6904
Mateur;13.44;44.43;6243;671;4320
Ghezella;15.98;43.58;12001;1481;7788
Menzel Bourguiba;9.90;47.07;2941;259;2356
Tinja;15.75;45.79;946;126;674
Utique;7.05;45.25;8092;471;6214
Ghar El Meleh;5.21;48.17;3510;170;3092
Menzel Djmil;10.73;58.94;1823;281;2338
El Alia;7.52;49.36;3206;235;2890
Ras Djbel;4.59;45.78;4075;158;3283
Total;12.57;42.81;85656;8061;56055

