; Superieur; Secondaire; Primaire;  Neant
Bizerte Nord;44.90;38.19;13.65;3.27
Zarzouna;26.35;48.13;19.11;6.41
Bizerte Sud;24.03;43.59;23.03;9.35
Sedjnene;38.01;39.52;15.77;6.70
Djoumine;--;--;--;--
Mateur;20.24;53.89;17.63;8.24
Ghezella;--;--;--;--
Menzel Bourguiba;21.88;43.85;25.99;8.28
Tinja;22.84;45.37;26.42;5.37
Utique;--;--;--;--
Ghar El Meleh;25.39;39.07;30.61;4.94
Menzel Djmil;25.94;44.85;24.56;4.65
El Alia;30.14;37.85;26.67;5.33
Ras Djbel;25.07;39.00;30.23;5.70
Total;28.86;43.03;22.13;5.97

