;   Non;Declare;  Autres services;    ;Education. Sante et services administratifs;   Transport; Commerce;    et Batiment travaux publiques;  Industrie manufacturiere
Bizerte Nord;0.42;9.44;53.71;1.24;8.60;0.82;24.94;0.55;0.28
Zarzouna;0.33;8.29;27.95;0.54;8.70;0.58;52.98;0.37;0.25
Bizerte Sud;0.14;10.78;33.17;0.97;7.41;0.54;45.52;0.68;0.79
Sedjnene;0.87;8.23;60.17;0.87;12.34;0.87;14.94;0.65;1.08
Djoumine;--;--;--;--;--;--;--;--;--
Mateur;0.40;5.80;23.02;0.55;4.94;0.95;62.26;0.26;1.84
Ghezella;--;--;--;--;--;--;--;--;--
Menzel Bourguiba;0.30;6.16;27.82;0.41;6.22;0.66;57.00;0.41;1.03
Tinja;0.25;5.47;34.41;0.75;7.91;0.30;50.02;0.40;0.50
Utique;--;--;--;--;--;--;--;--;--
Ghar El Meleh;0.28;5.64;26.52;1.69;6.06;1.41;55.85;0.42;2.12
Menzel Djmil;0.14;5.32;26.96;0.93;7.04;0.77;57.84;0.35;0.65
El Alia;0.08;2.79;31.16;0.93;7.71;1.19;53.60;0.59;1.95
Ras Djbel;0.21;3.59;23.76;0.43;5.71;1.73;63.47;0.19;0.91
Total;0.29;6.78;33.78;0.79;7.14;0.88;49.10;0.42;0.83

