;;Cuisine;;Toilette;   ;Salle de bain ou douche
Bizerte Nord;230;123;1374;99.22;99.59;95.35
Zarzouna;58;28;864;99.26;99.65;89.02
Bizerte Sud;346;519;1780;97.75;96.63;88.44
Djoumine;1343;3197;4467;80.00;52.41;33.50
Mateur;486;702;3112;96.25;94.58;75.98
Ghezella;1238;2873;4347;81.85;57.88;36.28
Menzel Bourguiba;283;675;2625;98.43;96.26;85.45
Tinja;151;287;1011;97.94;96.08;86.18
Utique;182;273;709;96.35;94.53;85.81
Ghar El Meleh;150;191;763;97.46;96.77;87.11
Menzel Djmil;262;190;1268;98.54;98.94;92.92
El Alia;152;86;1461;98.11;98.93;81.93
Ras Djbel;259;233;1555;98.80;98.92;92.78
Total;8558;14806;31283;95.07;91.47;81.97

