;60;   plus et ans;59 - 50;ans/;49- 45;ans/;44 - 40;ans/;39 - 35
Bizerte Nord;0.55;1.86;1.97;4.54;10.78;21.99;37.64;17.61;3.06
Zarzouna;0.33;4.16;3.00;2.50;10.48;19.13;32.45;22.46;5.49
Bizerte Sud;0.46;1.84;1.99;3.83;7.66;24.35;27.11;24.35;8.42
Sedjnene;0.00;4.49;2.81;2.81;6.74;20.22;39.89;19.10;3.93
Djoumine;--;--;--;--;--;--;--;--;--
Mateur;0.48;3.64;4.48;5.21;10.42;17.09;33.45;20.12;5.09
Ghezella;--;--;--;--;--;--;--;--;--
Menzel Bourguiba;0.51;2.47;3.19;5.29;11.75;20.23;31.25;21.10;4.21
Tinja;0.51;2.20;3.73;6.78;11.02;14.58;35.93;20.68;4.58
Utique;--;--;--;--;--;--;--;--;--
Ghar El Meleh;0.68;0.68;0.68;3.42;10.27;17.81;34.25;27.40;4.79
Menzel Djmil;0.52;1.76;1.87;4.15;8.92;18.36;39.21;19.29;5.91
El Alia;0.47;0.00;0.94;1.88;8.45;19.25;42.72;20.66;5.63
Ras Djbel;0.18;0.53;0.35;1.59;8.48;22.26;37.81;21.73;7.07
Total;0.47;2.23;2.49;4.31;10.10;19.99;35.04;20.42;4.96

