;  chmage de taux;  d'activite taux;  actifs Non; Chomeurs;  Occupes Actifs
Bizerte Nord;18.68;28.88;24408;1852;8061
Zarzouna;20.06;30.64;6803;603;2403
Bizerte Sud;20.54;26.29;15094;1106;4278
Sedjnene;31.66;13.03;12887;611;1319
Djoumine;32.97;8.43;10045;305;620
Mateur;18.79;29.94;12853;1032;4461
Ghezella;21.78;22.01;8104;498;1788
Menzel Bourguiba;19.53;30.74;16857;1461;6020
Tinja;22.19;29.55;6618;616;2160
Utique;14.11;17.04;5901;171;1041
Ghar El Meleh;14.30;20.32;5705;208;1247
Menzel Djmil;16.97;33.78;12056;1044;5107
El Alia;14.31;23.58;7245;320;1916
Ras Djbel;10.28;28.27;15740;638;5566
Total;18.54;26.04;160316;10465;45987

