{
  "date": "04/14/2019",
  "reportName": "report1",
  "userName ": "mahdi othmani",
  "qrCode": "cdoncosndcsdcnsbcdshdbisbcdis",
  "logo": "mlcdcdcmdlcslsdclskdcjnsdckbscdcdlscdk",
  "CITY1": "BIZERTE",
  "CITY2": "SOUSSE",
  "description": "desccc",
  "kpiSet": [
    {
      "city1_val": "23",
      "city2_val": "75",
      "name": "kpi1 environment",
      "description": "desccdd",
      "date": "03/08/2019",
      "dimension": "environment",
      "subDimension": "sub-environment",
      "category": "categry-environemnt",
      "unit": "percentage",
      "methodology": "meth",
      "source": "src",
      "sdg": "sdg1"
    },
    {
      "city1_val": "23",
      "city2_val": "75",
      "name": "kpi1 environment2",
      "description": "desccdd",
      "date": "03/08/2019",
      "dimension": "environment",
      "subDimension": "sub-environment",
      "category": "categry-environemnt",
      "unit": "percentage",
      "methodology": "meth1",
      "source": "src",
      "sdg": "sdg1"
    }
  ],
  "pSet": [
    {
      "parameter" : "Population",
      "city1Val": "10",
      "city2Val": "20",
      "description": "descc",
      "date": "03/06/2019"
    },
    {
      "parameter" : "Population2",
      "city1Val": "10",
      "city2Val": "20",
      "description": "descc",
      "date": "03/06/2019"
    }
  ],
  "chartsList": [
    {
      "city1Name": "BIZERTE",
      "city2Name": "SOUSSE",
      "name": "chart1",
      "kpiName": "kpi1",
      "img": "fffffffffffddddddddddkokdcpdc"
    },
    {
      "city1Name": "BIZERTE",
      "city2Name": "SOUSSE",
      "name": "chart2",
      "kpiName": "kpi2",
      "img": "fffffffffffddddddddddkokdcpdcddd"
    }
  ]
}